[
    {
        "normalForm": "mem",
        "translations": "meme",
        "gender": "n"
    },
    {
        "normalForm": "mjølk",
        "translations": "milk"
    },
    {
        "normalForm": "møte",
        "translations": "meeting",
        "gender": "n"
    }
]
