[
  {
    "normalForm": "seia",
    "translations": [ "to say" ]
  },
  {
    "normalForm": "skulla",
    "translations": [ "should", "would" ]
  },
  {
    "normalForm": "snu",
    "id": 11,
    "translations": "to turn",
    "synonym": [ 10 ]
  }
]